[2016-07-26 10:15:53] (ERROR @ /Users/michielzoer/Documents/GIT/vlijmscherp-site/core/xpdo/transport/xpdovehicle.class.php : 181) Could not copy /Users/michielzoer/Documents/GIT/vlijmscherp-site/core/packages/core/modContext/ee8371d134483fff7937d51391efe348/0/ to /Users/michielzoer/Documents/GIT/vlijmscherp-site/public/index.php
[2016-07-26 10:15:53] (ERROR @ /Users/michielzoer/Documents/GIT/vlijmscherp-site/core/xpdo/transport/xpdovehicle.class.php : 181) Could not copy /Users/michielzoer/Documents/GIT/vlijmscherp-site/core/packages/core/modContext/ee8371d134483fff7937d51391efe348/1/ to /Users/michielzoer/Documents/GIT/vlijmscherp-site/public/ht.access
[2016-07-26 10:15:53] (ERROR @ /Users/michielzoer/Documents/GIT/vlijmscherp-site/core/xpdo/transport/xpdovehicle.class.php : 181) Could not copy /Users/michielzoer/Documents/GIT/vlijmscherp-site/core/packages/core/modContext/e1605274c80a3b04714ebfb596516855/0/ to /Users/michielzoer/Documents/GIT/vlijmscherp-site/public/websitebeheer/assets
[2016-07-26 10:15:53] (ERROR @ /Users/michielzoer/Documents/GIT/vlijmscherp-site/core/xpdo/transport/xpdovehicle.class.php : 181) Could not copy /Users/michielzoer/Documents/GIT/vlijmscherp-site/core/packages/core/modContext/e1605274c80a3b04714ebfb596516855/1/ to /Users/michielzoer/Documents/GIT/vlijmscherp-site/public/websitebeheer/controllers
[2016-07-26 10:15:53] (ERROR @ /Users/michielzoer/Documents/GIT/vlijmscherp-site/core/xpdo/transport/xpdovehicle.class.php : 181) Could not copy /Users/michielzoer/Documents/GIT/vlijmscherp-site/core/packages/core/modContext/e1605274c80a3b04714ebfb596516855/2/ to /Users/michielzoer/Documents/GIT/vlijmscherp-site/public/websitebeheer/templates
[2016-07-26 10:15:53] (ERROR @ /Users/michielzoer/Documents/GIT/vlijmscherp-site/core/xpdo/transport/xpdovehicle.class.php : 181) Could not copy /Users/michielzoer/Documents/GIT/vlijmscherp-site/core/packages/core/modContext/e1605274c80a3b04714ebfb596516855/3/ to /Users/michielzoer/Documents/GIT/vlijmscherp-site/public/websitebeheer/min
[2016-07-26 10:15:53] (ERROR @ /Users/michielzoer/Documents/GIT/vlijmscherp-site/core/xpdo/transport/xpdovehicle.class.php : 181) Could not copy /Users/michielzoer/Documents/GIT/vlijmscherp-site/core/packages/core/modContext/e1605274c80a3b04714ebfb596516855/4/ to /Users/michielzoer/Documents/GIT/vlijmscherp-site/public/websitebeheer/ht.access
[2016-07-26 10:15:53] (ERROR @ /Users/michielzoer/Documents/GIT/vlijmscherp-site/core/xpdo/transport/xpdovehicle.class.php : 181) Could not copy /Users/michielzoer/Documents/GIT/vlijmscherp-site/core/packages/core/modContext/e1605274c80a3b04714ebfb596516855/5/ to /Users/michielzoer/Documents/GIT/vlijmscherp-site/public/websitebeheer/index.php
[2016-07-26 10:15:53] (ERROR @ /Users/michielzoer/Documents/GIT/vlijmscherp-site/core/xpdo/transport/xpdofilevehicle.class.php : 103) Could not install files from /Users/michielzoer/Documents/GIT/vlijmscherp-site/core/packages/core/xPDOFileVehicle/ba126d573d69f603cb9e9fff31de270c/ to /Users/michielzoer/Documents/GIT/vlijmscherp-site/public/connectors/
[2016-07-26 10:15:53] (ERROR @ /Users/michielzoer/Documents/GIT/vlijmscherp-site/core/xpdo/transport/xpdofilevehicle.class.php : 103) Could not install files from /Users/michielzoer/Documents/GIT/vlijmscherp-site/core/packages/core/xPDOFileVehicle/238dc0dfc087f73caca6610efa9711d2/ to /Users/michielzoer/Documents/GIT/vlijmscherp-site/public/connectors/
[2016-07-26 10:15:53] (ERROR @ /Users/michielzoer/Documents/GIT/vlijmscherp-site/core/xpdo/transport/xpdofilevehicle.class.php : 103) Could not install files from /Users/michielzoer/Documents/GIT/vlijmscherp-site/core/packages/core/xPDOFileVehicle/02f2376dfa94726d280ea70aab3c84a3/ to /Users/michielzoer/Documents/GIT/vlijmscherp-site/public/connectors/
[2016-07-26 10:15:53] (ERROR @ /Users/michielzoer/Documents/GIT/vlijmscherp-site/core/xpdo/transport/xpdofilevehicle.class.php : 103) Could not install files from /Users/michielzoer/Documents/GIT/vlijmscherp-site/core/packages/core/xPDOFileVehicle/cbab3ef3f0a5e998264a1903ee8e5e49/ to /Users/michielzoer/Documents/GIT/vlijmscherp-site/public/connectors/
